%YAML 1.1
%TAG !u! tag:unity3d.com,2011:
--- !u!1045 &1
EditorBuildSettings:
  m_ObjectHideFlags: 0
  serializedVersion: 2
  m_Scenes:
  - enabled: 0
    path: 
    guid: 00000000000000000000000000000000
  - enabled: 1
    path: Assets/Scenes/Menu.unity
    guid: 378203abd98e6284a84461e445bd1b30
  - enabled: 1
    path: Assets/Scenes/Tekenen.unity
    guid: 4a5c835f1dcd8c948819c489f1713dae
  - enabled: 1
    path: Assets/Scenes/TekenenCanvas.unity
    guid: 1b94e62c04e80204280751ef2604ce40
  - enabled: 1
    path: Assets/Scenes/ontwerp.unity
    guid: 47dc4091c22fa1d45a6af0c0735d258c
  m_configObjects: {}
